1739
POST /topics/load-test-1 HTTP/1.1
Host: test-sasnouskikh.eastus.cloudapp.azure.com:8082
Content-Type: application/vnd.kafka.json.v2+json
Content-Length: 1579

{"records":[{"value":{"Account":{"City":63,"Cs":56,"Subscriber":17927,"Full":"63-38-4607"},"DeviceId":"00D02D5B6464","Direction":"DeviceInitiated","EventId":"dfa3ca50-8a1a-413b-aec2-28b47f611bdb","Namespace":"CheckIns","MessageType":"CheckIn","SourceTimestamp":"null","ReceiverTimestamp":"2018-02-01T10:14:29","EventDate":"2018-02-01T10:14:29","ReasonCode":"null","RetryCount":"null","DelayTime":"null","Content":{"CheckInType":"CheckInNoQos"},"Header":{"Action":"null","OriginNetwork":"02","Version":"null"},"Debug":{"BytesToFollow":2,"Sequence":6073,"MessageId":365559945,"RawMessage":"STXI0215CA008900D02D5B646402012018101429000300630038460717B900020000ETX","AssemblyQualifiedName":"Honeywell.AlarmNet.Core.Entities.Message`1[[Honeywell.AlarmNet.Core.Entities.CheckIns.CheckIn,Entities,Version=2.0.1.0,Culture=neutral,PublicKeyToken=null]],Entities,Version=2.0.1.0,Culture=neutral,PublicKeyToken=null","Hops":[{"Description":"firehose:messageingested","CallStack":"","CreatedAt":"2018-02-01T10:14:29.4545193Z","Member":"InitPipeline","MachineName":"f02e53c6af90","ThreadId":26,"BatchId":"null"},{"Description":"firehose:enteredpipeline-Elastic","CallStack":"","CreatedAt":"2018-02-01T10:14:29.7970819Z","Member":".ctor","MachineName":"f02e53c6af90","ThreadId":26,"BatchId":"67fb8ae3-3c4e-4f5c-90fc-651029cbd769"},{"Description":"firehose:enteredpipeline-Lca","CallStack":"","CreatedAt":"2018-02-01T10:14:30.7530315Z","Member":".ctor","MachineName":"f02e53c6af90","ThreadId":36,"BatchId":"9a3a8404-f9c8-4c8b-9670-242d1967b722"}]},"Id":"a1d8301d-50a8-49bf-a881-c6a25406682e"}}]}
