{
	"kafkaConfig":{
		"subscribe":"another-test",
		"partitions.partition":"-2",
		"partitions.startIndex":"-2",
		"partitions.endIndex":"0",
		"endIndex":"-1",
		"kafka.bootstrap.servers":"localhost:9092"
	},
	"fsConfig":{
		"outputPath":"D:\\Training\\SparkOutput\\hdfs"
	}
}