{
    "loop_count": 54, 
    "steps": [
        [
            1.0, 
            4
        ], 
        [
            2.0, 
            6
        ], 
        [
            3.0, 
            7
        ], 
        [
            4.0, 
            7
        ], 
        [
            5.0, 
            6
        ], 
        [
            6.0, 
            7
        ], 
        [
            7.0, 
            7
        ], 
        [
            8.0, 
            6
        ], 
        [
            9.0, 
            7
        ], 
        [
            10.0, 
            4
        ]
    ], 
    "loadscheme": [
        "line(1, 10, 1m)"
    ], 
    "duration": 60, 
    "ammo_count": 330, 
    "instances": 1000
}